{
  "type": "object",
  "required": ["input", "namespace"],
  "additionalProperties": false,
  "properties": {
    "input": {
      "type": "object",
      "required": [
        "handle",
        "bodyHtml",
        "metafields",
        "options",
        "publications",
        "published",
        "status",
        "tags",
        "title",
        "variants",
        "vendor",
        "privateMetafields"
      ],
      "additionalProperties": false,
      "properties": {
        "bodyHtml": {
          "type": "string",
          "nullable": true
        },
        "handle": {
          "type": "string",
          "minLength": 3
        },
        "vendor": {
          "type": "string",
          "minLength": 2
        },
        "title": {
          "type": "string",
          "minLength": 2
        },
        "status": {
          "type": "string",
          "minLength": 2
        },
        "published": {
          "type": "boolean"
        },
        "publications": {
          "type": "array",
          "minItems": 1,
          "items": {
            "type": "object",
            "required": ["channelId"],
            "properties": {
              "channelId": {
                "type": "string",
                "minLength": 22
              }
            }
          }
        },
        "options": {
          "type": "array",
          "minItems": 1,
          "maxItems": 3,
          "items": {
            "type": "string",
            "minLength": 2
          }
        },
        "metafields": {},
        "privateMetafields": {
          "type": "array",
          "minItems": 1
        },
        "tags": {
          "type": "array",
          "minItems": 1,
          "items": {
            "type": "string",
            "minLength": 2
          }
        },
        "variants": {
          "type": "array",
          "minItems": 1,
          "uniqueItems": true,
          "items": {
            "type": "object",
            "required": [
              "sku",
              "inventoryPolicy",
              "metafields",
              "options",
              "price",
              "inventoryItem",
              "inventoryQuantities"
            ],
            "properties": {
              "options": {
                "type": "array",
                "minItems": 1
              },
              "inventoryQuantities": {
                "type": "object",
                "required": ["availableQuantity", "locationId"],
                "properties": {
                  "availableQuantity": {
                    "type": ["number", "string"]
                  }
                }
              }
            }
          }
        }
      }
    },
    "namespace": {
      "type": "string",
      "minLength": 2
    }
  }
}
