[
  {
    "STSInvoiceNumber": 677336,
    "STSPONumber": "100020210 PO-10333",
    "STSOrderStatus": "OPEN/PICKED/SHIPPED/PARTIALLY_SHIPPED/NSA/ATP/CANCEL",
    "STSOrderPriority": "1 - Today/2 - Priority/3 - Standard",
    "STSOrderedDate": "10-05-2021",
    "STSShipMethod": "IFS_AIRROAD/IFS_TOLL/IFS_STARTRACK",
    "STSSalesPerson": "Kayden He",
    "STSCustomerCardID": 7667,
    "STSCustomerName": "MonkeyFist",
    "STSOrderNotes": "14/05/2021 8:19:09 AM - kcathro - SYSTEM ACTION: posted consignment SO-0390-2175.xml successful. /n PURCHASE ORDER NUMBER: PO-10333 /n Backorders: cancel all backordered items /n AIRROAD (CN:SES825148)",
    "STSShipNote": "PURCHASE ORDER NUMBER: PO-10333, Backorders: cancel all backordered items",
    "Shipping": {
      "Street1": "Shop 1",
      "Street2": "53 Grafton Street",
      "Suburb": "Suburbname",
      "City": "Cairns",
      "State": "QLD",
      "Country": "Australia",
      "Phone": "07 4031 2669",
      "Fax": "07 4031 1384"
    }
  }
]
